…
Mapowanie map()

Z funkcją mutate()

map() przyjmuje parametr data, który jest kolumną (tibble) struktury danych dfN

Jeżeli outputem jest jedna zmienna (tj. wektor o długości 1), to można uprościć jej wyświetlanie za pomocą rodziny funkcji map_*()

  dfN %>%
  mutate(mean_pop = map(data, ~mean(.x$pop)))

## # A tibble: 142 x 3
## # Groups:   country [142]
##    country     data              mean_pop 
##    <fct>       <list>            <list>   
##  1 Afghanistan <tibble [12 x 5]> <dbl [1]>
##  2 Albania     <tibble [12 x 5]> <dbl [1]>
##  3 Algeria     <tibble [12 x 5]> <dbl [1]>
##  4 Angola      <tibble [12 x 5]> <dbl [1]>
##  5 Argentina   <tibble [12 x 5]> <dbl [1]>
##  6 Australia   <tibble [12 x 5]> <dbl [1]>
##  7 Austria     <tibble [12 x 5]> <dbl [1]>
##  8 Bahrain     <tibble [12 x 5]> <dbl [1]>
##  9 Bangladesh  <tibble [12 x 5]> <dbl [1]>
## 10 Belgium     <tibble [12 x 5]> <dbl [1]>
## # ... with 132 more rows
…
